{
  "firestore": {
    "rules": "firestore.rules",
    "indexes": "firestore.indexes.json",
    "hosting": {
      "rewrites": [
        {
          "source": "**",
          "destination": "/index.html"
        }
      ]
    }
  }
}
